001 About Magic Lantern
004 Important notes
005 Known issues
006 Common terms
008 Liveview screen layout
010 Key shortcuts
015 Magic Lantern menu
018 Analog Gain
019 L-DigitalGain
019 R-DigitalGain
020 Input source
022 Wind Filter
023 Mic Power
024 AGC
025 Headphone Monitoring
026 Output volume
027 Audio Meters
029 WhiteBalance
030 ISO
033 Shutter
034 Aperture
035 PictureStyle
036 REC PicStyle
037 Exp.Override
039 LV Display
041 Global Draw
042 Zebras
044 Focus Peak
045 Magic Zoom
048 Cropmarks
049 Ghost image
050 Defishing
051 Spotmeter
052 False color
053 Histogram
053 Waveform
054 Vectorscope
056 Bit Rate
058 Time Indicator
059 Movie Logging
060 Movie Restart
061 REC/STBY notify
062 Movie REC key
063 Force LiveView
064 Shutter Lock
065 FPS override
070 HDR video
071 Image Effects...
072 Movie Record
073 Shutter Button
074 Exposure Lock
076 HDR Bracketing
077 Intervalometer
080 Bulb/Focus Ramping
087 Bulb Timer
088 LCDsensor Remote
089 Audio RemoteShot
090 Motion Detect
091 Silent Picture
094 Mirror Lockup
095 Flash tweaks...
096 EyeFi Trick
098 Trap Focus
100 Focus Patterns
102 Follow Focus
104 Focus StepSize
105 Focus StepDelay
106 Focus End Point
107 Rack Delay
108 Rack Focus
111 Stack focus
113 Focus distance
113 DOF info
115 LV contrast
116 LV saturation
117 LV display gain
118 Color scheme
119 Clear overlays
120 Focus box
121 Force HDMI-VGA
122 Screen layout settings...
125 Level Indicator
126 Kill Canon GUI
128 Image review settings...
133 LiveView Zoom Settings...
134 Arrow/SET shortcuts...
135 Misc key settings...
137 Auto BurstPicQuality
138 Powersave in LiveView...
139 Config file...
140 LV Display Presets
141 Crop Factor Display
143 Screenshot - 10s
144 Don't click me!
145 Stability tests...
146 Show tasks...
147 Save CPU usage log
148 Free Memory
149 Shutter Count
150 CMOS temperature
151 Ambient light
152 Battery level (60D
152 5D Mark II)
153 Epilogue
152 end
